{
    "KPlugin": {
        "Category": "Appearance",
        "Description": "Closed windows fall into pieces",
        "Description[ar]": "النوافذ المغلقة تسقط قطعًا",
        "Description[az]": "Pəncərəni hissələrə parçalayaraq bağlayır",
        "Description[be]": "Пры закрыцці вокны развальваюцца на кавалкі",
        "Description[bg]": "Затворените прозорци се разпадат на малки квадрати",
        "Description[ca@valencia]": "Les finestres tancades es trenquen en peces",
        "Description[ca]": "Les finestres tancades es trenquen en peces",
        "Description[cs]": "Uzavřená okna se rozpadnou na kousky",
        "Description[de]": "Lässt geschlossene Fenster auseinander fallen",
        "Description[en_GB]": "Closed windows fall into pieces",
        "Description[eo]": "Fermitaj fenestroj falas en pecojn",
        "Description[es]": "Las ventanas cerradas caen en pedazos",
        "Description[et]": "Suletud aknad lagunevad tükkideks",
        "Description[eu]": "Itxitako leihoak puskatu egiten dira",
        "Description[fi]": "Suljetut ikkunat hajoavat palasiksi",
        "Description[fr]": "Les fenêtres fermées tombent en morceaux",
        "Description[gl]": "As xanelas pechadas rachan en anacos.",
        "Description[he]": "חלונות שנסגרים מתרסקים לרסיסים",
        "Description[hu]": "A bezárt ablakok darabokra hullanak",
        "Description[ia]": "Fenestras claudite cade in pecias",
        "Description[id]": "Jendela ditutup pecah berpuing-puing",
        "Description[it]": "Le finestre cadono a pezzi alla chiusura",
        "Description[ja]": "閉じられたウィンドウがバラバラに砕け散ります",
        "Description[ka]": "დახურული ფანჯარა ნაწილებად დაიშლება",
        "Description[ko]": "닫힌 창이 조각난 채로 떨어지게 합니다",
        "Description[nl]": "Gesloten vensters vallen uit elkaar",
        "Description[nn]": "La vindauge gå i tusen når dei vert lukka",
        "Description[pl]": "Rozsypuje okna na kawałki przy ich zamykaniu",
        "Description[pt]": "As janelas fechadas partem-se aos bocados",
        "Description[pt_BR]": "Janelas fechadas caem em pedaços",
        "Description[ro]": "Ferestrele închise se sparg în bucăți",
        "Description[ru]": "Распад закрывающихся окон на части",
        "Description[sk]": "Zatvorené okná sa rozpadnú na časti",
        "Description[sl]": "Zaprta okna se razletijo na koščke",
        "Description[sv]": "Stängda fönster faller i bitar",
        "Description[ta]": "மூடப்படும் சாளரங்கள் துண்டு துண்டாக நொறுங்கி மறையும்",
        "Description[tr]": "Kapanan pencereler parçalara ayrılırlar",
        "Description[uk]": "Розпадання вікон на шматочки під час закриття вікон",
        "Description[vi]": "Cửa sổ bị đóng sẽ vỡ thành nhiều mảnh",
        "Description[x-test]": "xxClosed windows fall into piecesxx",
        "Description[zh_CN]": "窗口关闭时绘制粉碎飞散动画",
        "Description[zh_TW]": "關閉的視窗會呈現粉碎效果",
        "EnabledByDefault": false,
        "License": "GPL",
        "Name": "Fall Apart",
        "Name[ar]": "السقوط أجزاء",
        "Name[az]": "Dağılma",
        "Name[be]": "Развальванне",
        "Name[bg]": "Разпадане",
        "Name[ca@valencia]": "Trencament",
        "Name[ca]": "Trencament",
        "Name[cs]": "Rozpad",
        "Name[de]": "Auseinanderfallen",
        "Name[en_GB]": "Fall Apart",
        "Name[eo]": "Disfali",
        "Name[es]": "Desmoronar",
        "Name[et]": "Lagunemine",
        "Name[eu]": "Puskatu",
        "Name[fi]": "Hajotus",
        "Name[fr]": "Tomber en morceaux",
        "Name[gl]": "Rachar",
        "Name[he]": "התפרקות",
        "Name[hu]": "Szétbontás",
        "Name[ia]": "Cade a pecias",
        "Name[id]": "Fall Apart",
        "Name[it]": "Cadi a pezzi",
        "Name[ja]": "バラバラにする",
        "Name[ka]": "დამსხვრევა",
        "Name[ko]": "떨어지기",
        "Name[nl]": "Uit elkaar vallen",
        "Name[nn]": "Gå i knas",
        "Name[pl]": "Rozpadanie",
        "Name[pt]": "Queda aos Bocados",
        "Name[pt_BR]": "Despedaçar",
        "Name[ro]": "Spargere",
        "Name[ru]": "Распад",
        "Name[sk]": "Rozpadnúť",
        "Name[sl]": "Razpad",
        "Name[sv]": "Fall sönder",
        "Name[ta]": "நொறுக்கு",
        "Name[tr]": "Parçalara Ayır",
        "Name[uk]": "Розпадання",
        "Name[vi]": "Tan vỡ",
        "Name[x-test]": "xxFall Apartxx",
        "Name[zh_CN]": "窗口粉碎动画",
        "Name[zh_TW]": "粉碎"
    }
}
