{
    "KPlugin": {
        "License": "GPL-2.0+",
        "Name": "Colorblindness Correction",
        "Name[bg]": "Корекция на цветна слепота",
        "Name[ca@valencia]": "Correcció del daltonisme",
        "Name[ca]": "Correcció del daltonisme",
        "Name[cs]": "Oprava barvosleposti",
        "Name[eo]": "Korekto de Kolorblindeco",
        "Name[es]": "Corrección para daltonismo",
        "Name[eu]": "Kolore itsutasunerako zuzenketa",
        "Name[fr]": "Correction du daltonisme",
        "Name[gl]": "Corrección de daltonismo",
        "Name[he]": "תיקון עיוורון צבעים",
        "Name[ia]": "Correction de cecitate de color",
        "Name[it]": "Correzione per il daltonismo",
        "Name[ka]": "ფერების სიბრმავის შესწორება",
        "Name[ko]": "색각 이상 보정",
        "Name[nl]": "Correctie voor kleurenblindheid",
        "Name[pl]": "Poprawki dla ślepych na barwy",
        "Name[sl]": "Popravek za barvno slepoto",
        "Name[ta]": "நிறக்குருடு திருத்தம்",
        "Name[tr]": "Renk Körlüğü Düzeltmesi",
        "Name[uk]": "Виправлення для дальтонізму",
        "Name[x-test]": "xxColorblindness Correctionxx",
        "Name[zh_CN]": "色盲校正",
        "Name[zh_TW]": "色盲修正"
    }
}
